QWE Churn
…
ii) The 0-1 refers to the intervening time between the months of December(0) and November (1).

iii) Churn refers to the cancellation of the subscription service by the customer. It is departure of the customer from the services offered by QWE.

iv) Support Cases refer to the number of times the customer has sought the help of customer support for resolving an issue with the service.

v) Each support case was assigned a priority level based on the complexity or severity of the issue, and this was given a value on a scale.

vi) The variables of login, blog articles, views and days since last login define the usage characteristics of the customer. The login tells us how many times a customer logged in, while the blog articles refers to the number of blog articles written by the customer, views refers to the views the blog post had and the days since the last login refers to the total days that have passed before the customer engaged with the service.

b)

data %>% mutate(`Churn (1 = Yes, 0 = No)` = replace(`Churn (1 = Yes, 0 = No)`, `Churn (1 = Yes, 0 = No)` == "-", 0))

## # A tibble: 6,347 x 13
##       ID `Customer Age ( `Churn (1 = Yes `CHI Score Mont `CHI Score 0-1`
##    <dbl>            <dbl>            <dbl>            <dbl>           <dbl>
##  1     1               67                0                0               0
##  2     2               67                0               62               4
##  3     3               55                0                0               0
##  4     4               63                0              231               1
##  5     5               57                0               43              -1
##  6     6               58                0              138             -10
##  7     7               57                0              180              -5
##  8     8               46                0              116             -11
##  9     9               56                0               78              -7
## 10    10               56                0               78             -37
## # ... with 6,337 more rows, and 8 more variables: `Support Cases Month
## #   0` <dbl>, `Support Cases 0-1` <dbl>, `SP Month 0` <dbl>, `SP
## #   0-1` <dbl>, `Logins 0-1` <dbl>, `Blog Articles 0-1` <dbl>, `Views
## #   0-1` <dbl>, `Days Since Last Login 0-1` <dbl>

data$`Churn (1 = Yes, 0 = No)` = as.factor(data$`Churn (1 = Yes, 0 = No)`)

data %>% mutate(`Customer Age (in months)` = replace(`Customer Age (in months)`, `Customer Age (in months)` == "-", 0))

## # A tibble: 6,347 x 13
##       ID `Customer Age ( `Churn (1 = Yes `CHI Score Mont `CHI Score 0-1`
##    <dbl>            <dbl> <fct>                       <dbl>           <dbl>
##  1     1               67 0                               0               0
##  2     2               67 0                              62               4
##  3     3               55 0                               0               0
##  4     4               63 0                             231               1
##  5     5               57 0                              43              -1
##  6     6               58 0                             138             -10
##  7     7               57 0                             180              -5
##  8     8               46 0                             116             -11
##  9     9               56 0                              78              -7
## 10    10               56 0                              78             -37
## # ... with 6,337 more rows, and 8 more variables: `Support Cases Month
## #   0` <dbl>, `Support Cases 0-1` <dbl>, `SP Month 0` <dbl>, `SP
## #   0-1` <dbl>, `Logins 0-1` <dbl>, `Blog Articles 0-1` <dbl>, `Views
## #   0-1` <dbl>, `Days Since Last Login 0-1` <dbl>
…
